{
    // Use IntelliSense to learn about possible attributes.
    // Hover to view descriptions of existing attributes.
    // For more information, visit: https://go.microsoft.com/fwlink/?linkid=830387
    "version": "0.2.0",
    "configurations": [
        {
            "type": "node",
            "request": "attach",
            "name": "accounts-server",
            "port": 9220
        },
        {
            "type": "node",
            "request": "attach",
            "name": "admin-server",
            "port": 9221
        },
        {
            "type": "node",
            "request": "attach",
            "name": "event-store",
            "port": 9222
        },
        {
            "type": "node",
            "request": "attach",
            "name": "identity-store",
            "port": 9223
        },
        {
            "type": "chrome",
            "request": "launch",
            "name": "business-ui",
            "url": "http://accounting.localhost:4200",
            "runtimeExecutable": "/usr/bin/chromium",
            "runtimeArgs": ["--remote-debugging-port=9222", "--user-data-dir=/tmp/ba/business-ui"],
            "webRoot": "${workspaceFolder}/packages/business-ui",
            "sourceMapPathOverrides": {
                "webpack:/*": "${webRoot}/*",
                "/./*": "${webRoot}/*",
                "/src/*": "${webRoot}/*",
                "/*": "*",
                "/./~/*": "${webRoot}/node_modules/*"
            }
        }
    ]
}
